{
  "images" : [
    {
      "idiom" : "universal",
      "filename" : "Eject From a group (Slided Contact).png",
      "scale" : "1x"
    },
    {
      "idiom" : "universal",
      "filename" : "Eject From a group (Slided Contact)@2x.png",
      "scale" : "2x"
    },
    {
      "idiom" : "universal",
      "filename" : "Eject From a group (Slided Contact)@3x.png",
      "scale" : "3x"
    }
  ],
  "info" : {
    "version" : 1,
    "author" : "xcode"
  }
}